{
  "description": "created by akivuls@atlassian.com",
  "graphs": [
    {
      "definition": {
        "autoscale": true,
        "requests": [
          {
            "aggregator": "avg",
            "conditional_formats": [],
            "q": "sum:perms.requests{$$micros_service_id,$$environment} by {endpoint,deployment_id,product}.as_rate()",
            "style": {
              "palette": "cool",
              "type": "solid",
              "width": "normal"
            },
            "type": "bars"
          },
          {
            "q": "sum:perms.failures{$$micros_service_id,$$environment} by {endpoint,deployment_id,product}.as_rate(), sum:perms.unauthorized{$$micros_service_id,$$environment} by {endpoint,deployment_id,product}.as_rate(), sum:perms.tooManyRequests{$$micros_service_id,$$environment} by {endpoint,deployment_id,product}.as_rate(), sum:perms.badRequests{$$micros_service_id,$$environment} by {endpoint,deployment_id,product}.as_rate()",
            "style": {
              "palette": "warm",
              "type": "solid",
              "width": "normal"
            },
            "type": "bars"
          }
        ],
        "status": "done",
        "viz": "timeseries"
      },
      "title": "Rate of All Requests"
    },
    {
      "definition": {
        "autoscale": true,
        "requests": [
          {
            "aggregator": "avg",
            "conditional_formats": [],
            "q": "sum:perms.requests{$$micros_service_id,$$environment,product:hipchat.cloud} by {endpoint,deployment_id}.as_rate()",
            "style": {
              "palette": "cool"
            },
            "type": "bars"
          },
          {
            "aggregator": "avg",
            "conditional_formats": [],
            "q": "- sum:perms.badRequests{$$micros_service_id,$$environment,product:hipchat.cloud} by {endpoint,deployment_id,product}.as_rate(), - sum:perms.failures{$$micros_service_id,$$environment,product:hipchat.cloud} by {endpoint,deployment_id,product}.as_rate(), - sum:perms.tooManyRequests{$$micros_service_id,$$environment,product:hipchat.cloud} by {endpoint,deployment_id,product}.as_rate()",
            "style": {
              "palette": "warm"
            },
            "type": "bars"
          }
        ],
        "status": "done",
        "viz": "timeseries"
      },
      "title": "Stride Rate of Requests"
    },
    {
      "definition": {
        "autoscale": true,
        "requests": [
          {
            "aggregator": "avg",
            "conditional_formats": [],
            "q": "sum:perms.requests{$$micros_service_id,$$environment,product:jira} by {endpoint,deployment_id}.as_rate()",
            "style": {
              "palette": "cool"
            },
            "type": "bars"
          },
          {
            "aggregator": "avg",
            "conditional_formats": [],
            "q": "- sum:perms.badRequests{$$micros_service_id,$$environment,product:jira} by {endpoint,deployment_id,product}.as_rate(), - sum:perms.failures{$$micros_service_id,$$environment,product:jira} by {endpoint,deployment_id,product}.as_rate(), - sum:perms.tooManyRequests{$$micros_service_id,$$environment,product:jira} by {endpoint,deployment_id,product}.as_rate()",
            "style": {
              "palette": "warm"
            },
            "type": "bars"
          }
        ],
        "status": "done",
        "viz": "timeseries"
      },
      "title": "Jira Rate of Requests"
    },
    {
      "definition": {
        "autoscale": true,
        "requests": [
          {
            "aggregator": "avg",
            "conditional_formats": [],
            "q": "sum:perms.requests{$$micros_service_id,$$environment,product:confluence} by {endpoint,deployment_id}.as_rate()",
            "style": {
              "palette": "cool"
            },
            "type": "bars"
          },
          {
            "aggregator": "avg",
            "conditional_formats": [],
            "q": "- sum:perms.badRequests{$$micros_service_id,$$environment,product:confluence} by {endpoint,deployment_id,product}.as_rate(), - sum:perms.failures{$$micros_service_id,$$environment,product:confluence} by {endpoint,deployment_id,product}.as_rate(), - sum:perms.tooManyRequests{$$micros_service_id,$$environment,product:confluence} by {endpoint,deployment_id,product}.as_rate()",
            "style": {
              "palette": "warm"
            },
            "type": "bars"
          }
        ],
        "status": "done",
        "viz": "timeseries"
      },
      "title": "Confluence Rate of Requests"
    },
    {
      "definition": {
        "autoscale": true,
        "requests": [
          {
            "aggregator": "avg",
            "conditional_formats": [],
            "q": "sum:perms.requests{$$micros_service_id,$$environment,product:identity} by {endpoint,deployment_id}.as_rate()",
            "style": {
              "palette": "cool"
            },
            "type": "bars"
          },
          {
            "aggregator": "avg",
            "conditional_formats": [],
            "q": "- sum:perms.badRequests{$$micros_service_id,$$environment,product:identity} by {endpoint,deployment_id,product}.as_rate(), - sum:perms.failures{$$micros_service_id,$$environment,product:identity} by {endpoint,deployment_id,product}.as_rate(), - sum:perms.tooManyRequests{$$micros_service_id,$$environment,product:identity} by {endpoint,deployment_id,product}.as_rate()",
            "style": {
              "palette": "warm"
            },
            "type": "bars"
          }
        ],
        "status": "done",
        "viz": "timeseries"
      },
      "title": "Identity Rate of Requests"
    },
    {
      "definition": {
        "autoscale": true,
        "requests": [
          {
            "aggregator": "avg",
            "conditional_formats": [],
            "q": "sum:perms.requests{$$micros_service_id,$$environment,product:oauth-management} by {endpoint,deployment_id}.as_rate()",
            "style": {
              "palette": "cool"
            },
            "type": "bars"
          },
          {
            "aggregator": "avg",
            "conditional_formats": [],
            "q": "- sum:perms.badRequests{$$micros_service_id,$$environment,product:oauth-management} by {endpoint,deployment_id,product}.as_rate(), - sum:perms.failures{$$micros_service_id,$$environment,product:oauth-management} by {endpoint,deployment_id,product}.as_rate(), - sum:perms.tooManyRequests{$$micros_service_id,$$environment,product:oauth-management} by {endpoint,deployment_id,product}.as_rate()",
            "style": {
              "palette": "warm"
            },
            "type": "bars"
          }
        ],
        "status": "done",
        "viz": "timeseries"
      },
      "title": "Oauth-Management Rate of Requests"
    },
    {
      "definition": {
        "autoscale": true,
        "requests": [
          {
            "aggregator": "avg",
            "conditional_formats": [],
            "q": "sum:perms.failures{$$micros_service_id,$$environment} by {endpoint,deployment_id,product}.as_rate(), sum:perms.unauthorized{$$micros_service_id,$$environment} by {endpoint,deployment_id,product}.as_rate(), sum:perms.tooManyRequests{$$micros_service_id,$$environment} by {endpoint,deployment_id,product}.as_rate(), sum:perms.badRequests{$$micros_service_id,$$environment} by {endpoint,deployment_id,product}.as_rate()",
            "style": {
              "palette": "warm",
              "type": "solid",
              "width": "normal"
            },
            "type": "bars"
          }
        ],
        "status": "done",
        "viz": "timeseries"
      },
      "title": "Rate of All Unsuccessful Requests"
    },
    {
      "definition": {
        "requests": [
          {
            "conditional_formats": [],
            "q": "top(avg:perms.time.upper_99{$$environment,$$micros_service_id,product:hipchat.cloud} by {endpoint}, 20, 'mean', 'desc')",
            "style": {
              "palette": "dog_classic"
            }
          }
        ],
        "status": "done",
        "viz": "toplist"
      },
      "title": "Stride p99 by Endpoint"
    },
    {
      "definition": {
        "requests": [
          {
            "conditional_formats": [],
            "q": "top(avg:perms.time.upper_99{$$environment,$$micros_service_id,product:jira} by {endpoint}, 20, 'mean', 'desc')",
            "style": {
              "palette": "dog_classic"
            }
          }
        ],
        "status": "done",
        "viz": "toplist"
      },
      "title": "Jira p99 by Endpoint"
    },
    {
      "definition": {
        "requests": [
          {
            "conditional_formats": [],
            "q": "top(avg:perms.time.upper_99{$$environment,$$micros_service_id,product:confluence} by {endpoint}, 20, 'mean', 'desc')",
            "style": {
              "palette": "dog_classic"
            }
          }
        ],
        "status": "done",
        "viz": "toplist"
      },
      "title": "Confluence p99 by Endpoint"
    },
    {
      "definition": {
        "requests": [
          {
            "conditional_formats": [],
            "q": "top(avg:perms.time.upper_99{$$environment,$$micros_service_id,product:identity} by {endpoint}, 20, 'mean', 'desc')",
            "style": {
              "palette": "dog_classic"
            }
          }
        ],
        "status": "done",
        "viz": "toplist"
      },
      "title": "Identity p99 by Endpoint"
    },
    {
      "definition": {
        "requests": [
          {
            "conditional_formats": [],
            "q": "top(avg:perms.time.upper_99{$$environment,$$micros_service_id,product:oauth-management} by {endpoint}, 20, 'mean', 'desc')",
            "style": {
              "palette": "dog_classic"
            }
          }
        ],
        "status": "done",
        "viz": "toplist"
      },
      "title": "Oauth-Management p99 by Endpoint"
    },
    {
      "definition": {
        "autoscale": true,
        "requests": [
          {
            "conditional_formats": [],
            "q": "avg:system.load.1{*}",
            "type": "line"
          }
        ],
        "status": "done",
        "viz": "timeseries"
      },
      "title": "Placeholder"
    },
    {
      "definition": {
        "autoscale": true,
        "requests": [
          {
            "aggregator": "avg",
            "conditional_formats": [],
            "q": "- avg:perms.time.mean{$$micros_service_id,$$environment,product:hipchat.cloud,endpoint:/permitted}",
            "style": {
              "palette": "dog_classic",
              "width": "thin"
            },
            "type": "line"
          },
          {
            "q": "- avg:perms.time.upper_99{$$micros_service_id,$$environment,product:hipchat.cloud,endpoint:/permitted}",
            "style": {
              "palette": "dog_classic",
              "width": "thin"
            },
            "type": "line"
          },
          {
            "q": "avg:perms.time.mean{$$micros_service_id,$$environment,product:hipchat.cloud,endpoint:/bulk/permitted}",
            "style": {
              "palette": "dog_classic",
              "width": "thin"
            },
            "type": "line"
          },
          {
            "q": "avg:perms.time.upper_99{$$micros_service_id,$$environment,product:hipchat.cloud,endpoint:/bulk/permitted}",
            "style": {
              "palette": "dog_classic",
              "width": "thin"
            },
            "type": "line"
          }
        ],
        "status": "done",
        "viz": "timeseries"
      },
      "title": "Stride bulk & reg /permitted p50/p99"
    },
    {
      "definition": {
        "autoscale": true,
        "requests": [
          {
            "aggregator": "avg",
            "conditional_formats": [],
            "q": "- avg:perms.time.mean{$$micros_service_id,$$environment,product:jira,endpoint:/permitted}",
            "style": {
              "palette": "dog_classic",
              "width": "thin"
            },
            "type": "line"
          },
          {
            "q": "- avg:perms.time.upper_99{$$micros_service_id,$$environment,product:jira,endpoint:/permitted}",
            "style": {
              "palette": "dog_classic",
              "width": "thin"
            },
            "type": "line"
          },
          {
            "q": "avg:perms.time.mean{$$micros_service_id,$$environment,product:jira,endpoint:/bulk/permitted}",
            "style": {
              "palette": "dog_classic",
              "width": "thin"
            },
            "type": "line"
          },
          {
            "q": "avg:perms.time.upper_99{$$micros_service_id,$$environment,product:jira,endpoint:/bulk/permitted}",
            "style": {
              "palette": "dog_classic",
              "width": "thin"
            },
            "type": "line"
          }
        ],
        "status": "done",
        "viz": "timeseries"
      },
      "title": "Jira bulk & reg /permitted p50/p99"
    },
    {
      "definition": {
        "autoscale": true,
        "requests": [
          {
            "aggregator": "avg",
            "conditional_formats": [],
            "q": "- avg:perms.time.mean{$$micros_service_id,$$environment,product:confluence,endpoint:/permitted}",
            "style": {
              "palette": "dog_classic",
              "width": "thin"
            },
            "type": "line"
          },
          {
            "q": "- avg:perms.time.upper_99{$$micros_service_id,$$environment,product:confluence,endpoint:/permitted}",
            "style": {
              "palette": "dog_classic",
              "width": "thin"
            },
            "type": "line"
          },
          {
            "q": "avg:perms.time.mean{$$micros_service_id,$$environment,product:confluence,endpoint:/bulk/permitted}",
            "style": {
              "palette": "dog_classic",
              "width": "thin"
            },
            "type": "line"
          },
          {
            "q": "avg:perms.time.upper_99{$$micros_service_id,$$environment,product:confluence,endpoint:/bulk/permitted}",
            "style": {
              "palette": "dog_classic",
              "width": "thin"
            },
            "type": "line"
          }
        ],
        "status": "done",
        "viz": "timeseries"
      },
      "title": "Confluence bulk & reg /permitted p50/p99"
    },
    {
      "definition": {
        "autoscale": true,
        "requests": [
          {
            "aggregator": "avg",
            "conditional_formats": [],
            "q": "avg:perms.time.upper_99{$$micros_service_id,$$environment,product:identity} by {endpoint}",
            "style": {
              "palette": "dog_classic",
              "width": "thin"
            },
            "type": "line"
          }
        ],
        "status": "done",
        "viz": "timeseries"
      },
      "title": "Identity p99"
    },
    {
      "definition": {
        "autoscale": true,
        "requests": [
          {
            "aggregator": "avg",
            "conditional_formats": [],
            "q": "avg:perms.time.mean{$$micros_service_id,$$environment,product:oauth-management} by {endpoint}",
            "style": {
              "palette": "dog_classic",
              "width": "thin"
            },
            "type": "line"
          },
          {
            "q": "avg:perms.time.upper_99{$$micros_service_id,$$environment,product:oauth-management} by {endpoint}",
            "style": {
              "palette": "dog_classic",
              "width": "thin"
            },
            "type": "line"
          }
        ],
        "status": "done",
        "viz": "timeseries"
      },
      "title": "Oauth-Management p50/p99"
    },
    {
      "definition": {
        "autoscale": true,
        "requests": [
          {
            "aggregator": "avg",
            "conditional_formats": [],
            "q": "sum:perms.gocql.attempts{$$environment,$$micros_service_id} by {schema}.as_count()",
            "style": {
              "palette": "cool"
            },
            "type": "bars"
          }
        ],
        "status": "done",
        "viz": "timeseries"
      },
      "title": "CQL Table Hit Rate"
    },
    {
      "definition": {
        "autoscale": true,
        "requests": [
          {
            "aggregator": "avg",
            "conditional_formats": [],
            "q": "avg:perms.gocql.times.upper_90{$$environment,$$micros_service_id} by {schema}",
            "style": {
              "palette": "dog_classic",
              "type": "solid",
              "width": "thin"
            },
            "type": "line"
          },
          {
            "q": "avg:perms.gocql.times.upper_99{$$environment,$$micros_service_id} by {schema}",
            "style": {
              "palette": "dog_classic",
              "type": "solid",
              "width": "thin"
            },
            "type": "line"
          }
        ],
        "status": "done",
        "viz": "timeseries"
      },
      "title": "CQL Time p90/p99"
    },
    {
      "definition": {
        "autoscale": true,
        "requests": [
          {
            "aggregator": "avg",
            "conditional_formats": [],
            "q": "sum:perms.gocql.attempts{$$environment,$$micros_service_id}.as_count() / sum:perms.requests{$$environment,$$micros_service_id,!product:confluence,!product:jira}.as_count()",
            "style": {
              "width": "thin"
            },
            "type": "line"
          }
        ],
        "status": "done",
        "viz": "timeseries"
      },
      "title": "Gocql Attempts per Request"
    },
    {
      "definition": {
        "autoscale": true,
        "requests": [
          {
            "aggregator": "avg",
            "conditional_formats": [],
            "q": "sum:perms.redis.conn.total{$$environment,$$micros_service_id,micros_group:webserver} by {host}.rollup(sum)",
            "style": {
              "palette": "dog_classic",
              "type": "solid",
              "width": "normal"
            },
            "type": "area"
          }
        ],
        "viz": "timeseries"
      },
      "title": "Redis Connections"
    },
    {
      "definition": {
        "autoscale": true,
        "requests": [
          {
            "aggregator": "avg",
            "conditional_formats": [],
            "q": "avg:perms.cache.get.time.lower{$$micros_service_id,$$environment,micros_group:webserver}",
            "style": {
              "palette": "dog_classic",
              "type": "solid",
              "width": "thin"
            },
            "type": "line"
          },
          {
            "q": "avg:perms.cache.get.time.upper_90{$$micros_service_id,$$environment,micros_group:webserver}",
            "style": {
              "palette": "dog_classic",
              "type": "solid",
              "width": "thin"
            },
            "type": "line"
          },
          {
            "q": "avg:perms.cache.get.time.upper_99{$$micros_service_id,$$environment,micros_group:webserver}",
            "style": {
              "palette": "dog_classic",
              "type": "solid",
              "width": "thin"
            },
            "type": "line"
          },
          {
            "q": "-avg:perms.cache.set.time.lower{$$micros_service_id,$$environment,micros_group:webserver}",
            "style": {
              "palette": "dog_classic",
              "type": "solid",
              "width": "thin"
            },
            "type": "line"
          },
          {
            "q": "-avg:perms.cache.set.time.upper_90{$$micros_service_id,$$environment,micros_group:webserver}",
            "style": {
              "palette": "dog_classic",
              "type": "solid",
              "width": "thin"
            },
            "type": "line"
          },
          {
            "q": "-avg:perms.cache.set.time.upper_99{$$micros_service_id,$$environment,micros_group:webserver}",
            "style": {
              "palette": "dog_classic",
              "type": "solid",
              "width": "thin"
            },
            "type": "line"
          }
        ],
        "status": "done",
        "viz": "timeseries"
      },
      "title": "WebServer Cache Time Get/Set p0/90/99"
    },
    {
      "definition": {
        "autoscale": true,
        "requests": [
          {
            "aggregator": "avg",
            "conditional_formats": [],
            "q": "sum:perms.cache.hits{$$environment,$$micros_service_id,micros_group:webserver}.as_count()/(sum:perms.cache.hits{$$environment,$$micros_service_id,micros_group:webserver}.as_count()+sum:perms.cache.misses{$$environment,$$micros_service_id,micros_group:webserver}.as_count())*100",
            "style": {
              "palette": "cool",
              "type": "solid",
              "width": "thin"
            },
            "type": "line"
          },
          {
            "q": "log2(sum:perms.cache.flush{$$environment,$$micros_service_id,micros_group:webserver} by {endpoint,product}.as_count().rollup(sum))",
            "style": {
              "palette": "warm",
              "type": "solid",
              "width": "normal"
            },
            "type": "bars"
          }
        ],
        "status": "done",
        "viz": "timeseries"
      },
      "title": "WebServer Cache Hit %"
    },
    {
      "definition": {
        "autoscale": true,
        "requests": [
          {
            "aggregator": "avg",
            "conditional_formats": [],
            "q": "sum:perms.cache.timeouts{$$environment,$$micros_service_id,micros_group:webserver}.as_count().rollup(sum)",
            "style": {
              "palette": "orange"
            },
            "type": "bars"
          },
          {
            "q": "sum:perms.cache.requests{$$environment,$$micros_service_id,micros_group:webserver}.as_count().rollup(sum)",
            "style": {
              "type": "dashed",
              "width": "thin"
            },
            "type": "line"
          },
          {
            "q": "sum:perms.cache.set.time.count{$$environment,$$micros_service_id,micros_group:webserver}.rollup(sum)",
            "style": {
              "type": "dashed",
              "width": "thin"
            },
            "type": "line"
          },
          {
            "q": "sum:perms.cache.get.time.count{$$environment,$$micros_service_id,micros_group:webserver}.rollup(sum)",
            "style": {
              "type": "dashed",
              "width": "thin"
            },
            "type": "line"
          }
        ],
        "status": "done",
        "viz": "timeseries"
      },
      "title": "Cache Requests vs Timeouts"
    },
    {
      "definition": {
        "autoscale": true,
        "requests": [
          {
            "conditional_formats": [],
            "q": "avg:perms.cache.get.duplicates{$$environment,$$micros_service_id}",
            "style": {
              "palette": "dog_classic",
              "type": "solid",
              "width": "normal"
            },
            "type": "line"
          }
        ],
        "viz": "timeseries"
      },
      "title": "Cache duplicates"
    },
    {
      "definition": {
        "autoscale": true,
        "requests": [
          {
            "conditional_formats": [],
            "q": "avg:system.load.1{*}",
            "type": "line"
          }
        ],
        "status": "error",
        "viz": "timeseries"
      },
      "title": "Placeholder"
    },
    {
      "definition": {
        "autoscale": true,
        "requests": [
          {
            "conditional_formats": [],
            "q": "avg:system.load.1{*}",
            "type": "line"
          }
        ],
        "status": "done",
        "viz": "timeseries"
      },
      "title": "Placeholder"
    },
    {
      "definition": {
        "autoscale": true,
        "requests": [
          {
            "conditional_formats": [],
            "q": "avg:system.load.1{*}",
            "type": "line"
          }
        ],
        "status": "done",
        "viz": "timeseries"
      },
      "title": "Placeholder"
    },
    {
      "definition": {
        "autoscale": true,
        "requests": [
          {
            "conditional_formats": [],
            "q": "avg:system.load.1{*}",
            "type": "line"
          }
        ],
        "viz": "timeseries"
      },
      "title": "Placeholder"
    },
    {
      "definition": {
        "autoscale": true,
        "requests": [
          {
            "aggregator": "avg",
            "conditional_formats": [],
            "q": "sum:aws.ec2.network_in{$$environment,$$micros_service_id,micros_group:webserver} by {host}.rollup(avg) / 60",
            "type": "area"
          },
          {
            "q": "sum:aws.ec2.network_out{$$environment,$$micros_service_id,micros_group:webserver} by {host}.rollup(avg) / - 60",
            "type": "area"
          }
        ],
        "status": "done",
        "viz": "timeseries"
      },
      "title": "WebServer Network (bps) [AWS]"
    },
    {
      "definition": {
        "autoscale": true,
        "markers": [
          {
            "dim": "y",
            "type": "warning dashed",
            "val": 100,
            "value": "y = 100"
          }
        ],
        "requests": [
          {
            "aggregator": "avg",
            "conditional_formats": [],
            "q": "max:system.load.norm.1{$$environment,$$micros_service_id,micros_group:webserver} by {host,deployment_id}.rollup(max) * 100",
            "style": {
              "palette": "warm",
              "width": "normal"
            },
            "type": "line"
          }
        ],
        "status": "done",
        "viz": "timeseries"
      },
      "title": "WebServer CPU load %"
    },
    {
      "definition": {
        "autoscale": true,
        "markers": [
          {
            "dim": "y",
            "type": "warning dashed",
            "val": 100,
            "value": "y = 100"
          }
        ],
        "requests": [
          {
            "aggregator": "avg",
            "conditional_formats": [],
            "q": "max:system.cpu.system{$$environment,$$micros_service_id,micros_group:webserver}.rollup(max), max:system.cpu.user{$$environment,$$micros_service_id,micros_group:webserver}.rollup(max), max:system.cpu.iowait{$$environment,$$micros_service_id,micros_group:webserver}.rollup(max), 100 - min:system.cpu.idle{$$environment,$$micros_service_id,micros_group:webserver}.rollup(min)",
            "style": {
              "palette": "cool",
              "width": "thin"
            },
            "type": "line"
          }
        ],
        "status": "done",
        "viz": "timeseries"
      },
      "title": "WebServer CPU Breakdown"
    },
    {
      "definition": {
        "autoscale": true,
        "markers": [
          {
            "dim": "y",
            "type": "error dashed",
            "val": 100,
            "value": "y = 100"
          }
        ],
        "requests": [
          {
            "aggregator": "avg",
            "conditional_formats": [],
            "q": "100 - ( avg:system.mem.pct_usable{$$environment,$$micros_service_id,micros_group:webserver}.rollup(avg) * 100 )",
            "type": "area"
          }
        ],
        "status": "done",
        "viz": "timeseries"
      },
      "title": "WebServer Memory Used %"
    },
    {
      "definition": {
        "autoscale": true,
        "requests": [
          {
            "aggregator": "avg",
            "conditional_formats": [],
            "q": "sum:system.processes.number{$$micros_service_id,$$environment,micros_group:webserver} by {deployment_id}",
            "style": {
              "palette": "cool",
              "type": "solid",
              "width": "normal"
            },
            "type": "line"
          },
          {
            "q": "sum:system.processes.threads{$$micros_service_id,$$environment,micros_group:webserver} by {deployment_id}",
            "style": {
              "palette": "cool",
              "type": "solid",
              "width": "normal"
            },
            "type": "line"
          }
        ],
        "status": "done",
        "viz": "timeseries"
      },
      "title": "WebServer Threads & Processes"
    },
    {
      "definition": {
        "autoscale": true,
        "requests": [
          {
            "aggregator": "avg",
            "conditional_formats": [],
            "q": "avg:system.io.util{$$micros_service_id,$$environment,micros_group:webserver} by {host}",
            "style": {
              "width": "thin"
            },
            "type": "line"
          }
        ],
        "status": "done",
        "viz": "timeseries"
      },
      "title": "WebServer I/O"
    },
    {
      "definition": {
        "autoscale": true,
        "requests": [
          {
            "aggregator": "avg",
            "conditional_formats": [],
            "q": "avg:system.netns.tcp4.established{$$environment,$$micros_service_id,micros_group:webserver} by {host}",
            "type": "line"
          },
          {
            "q": "avg:system.netns.tcp4.opening{$$environment,$$micros_service_id,micros_group:webserver} by {host}.rollup(sum)",
            "type": "bars"
          },
          {
            "q": "avg:system.netns.tcp4.closing{$$environment,$$micros_service_id,micros_group:webserver} by {host}.rollup(sum)",
            "type": "bars"
          },
          {
            "q": "avg:system.netns.tcp4.listening{$$environment,$$micros_service_id,micros_group:webserver} by {host}",
            "type": "line"
          },
          {
            "q": "avg:system.netns.tcp4.time_wait{$$environment,$$micros_service_id} by {host}",
            "type": "line"
          }
        ],
        "status": "done",
        "viz": "timeseries"
      },
      "title": "WebServer TCP Netns"
    },
    {
      "definition": {
        "autoscale": true,
        "requests": [
          {
            "aggregator": "avg",
            "conditional_formats": [],
            "q": "sum:perms.dependency.healthy{$$environment,$$micros_service_id} by {engine}.as_count(), sum:perms.dependency.unhealthy{$$environment,$$micros_service_id} by {engine}.as_count()",
            "type": "bars"
          },
          {
            "q": "sum:perms.dependency.unhealthy{$$environment,$$micros_service_id} by {engine}.as_count()",
            "style": {
              "palette": "warm"
            },
            "type": "bars"
          }
        ],
        "status": "done",
        "viz": "timeseries"
      },
      "title": "Perms Dependency Health by Engine"
    },
    {
      "definition": {
        "autoscale": true,
        "events": [
          {
            "q": "sources:autoscaling tags:$$micros_service_id,micros_group:webserver,$$environment ",
            "tags_execution": "and"
          }
        ],
        "requests": [
          {
            "aggregator": "avg",
            "conditional_formats": [],
            "q": "max:aws.elb.healthy_host_count{$$micros_service_id,$$environment}.rollup(min)",
            "style": {
              "palette": "dog_classic",
              "type": "solid",
              "width": "normal"
            },
            "type": "bars"
          },
          {
            "q": "max:aws.elb.un_healthy_host_count{$$micros_service_id,$$environment}.rollup(min)",
            "style": {
              "palette": "warm",
              "type": "solid",
              "width": "normal"
            },
            "type": "bars"
          }
        ],
        "status": "done",
        "viz": "timeseries"
      },
      "title": "WebServer Healthy Hosts [AWS]"
    },
    {
      "definition": {
        "autoscale": true,
        "requests": [
          {
            "aggregator": "avg",
            "conditional_formats": [],
            "q": "sum:aws.elb.httpcode_backend_2xx{$$environment,$$micros_service_id}.as_count().rollup(sum), sum:aws.elb.httpcode_backend_3xx{$$environment,$$micros_service_id}.as_count().rollup(sum), sum:aws.elb.httpcode_backend_4xx{$$environment,$$micros_service_id}.as_count().rollup(sum), sum:aws.elb.httpcode_backend_5xx{$$environment,$$micros_service_id}.as_count().rollup(sum)",
            "style": {
              "palette": "dog_classic",
              "type": "solid",
              "width": "normal"
            },
            "type": "bars"
          }
        ],
        "status": "done",
        "viz": "timeseries"
      },
      "title": "ELB by Response Code [AWS]"
    },
    {
      "definition": {
        "autoscale": true,
        "requests": [
          {
            "conditional_formats": [],
            "q": "avg:system.load.1{*}",
            "type": "line"
          }
        ],
        "status": "done",
        "viz": "timeseries"
      },
      "title": "Placeholder"
    },
    {
      "definition": {
        "autoscale": true,
        "requests": [
          {
            "conditional_formats": [],
            "q": "avg:system.load.1{*}",
            "type": "line"
          }
        ],
        "status": "done",
        "viz": "timeseries"
      },
      "title": "Placeholder"
    },
    {
      "definition": {
        "autoscale": true,
        "requests": [
          {
            "aggregator": "avg",
            "conditional_formats": [],
            "q": "avg:perms.time.mean_90{$$micros_service_id,$$environment}",
            "style": {
              "palette": "dog_classic",
              "type": "solid",
              "width": "normal"
            },
            "type": "line"
          },
          {
            "q": "avg:perms.time.mean_99{$$micros_service_id,$$environment}",
            "style": {
              "palette": "dog_classic",
              "type": "solid",
              "width": "normal"
            },
            "type": "line"
          }
        ],
        "status": "done",
        "viz": "timeseries"
      },
      "title": "Perms Mean Time p90/p99"
    },
    {
      "definition": {
        "autoscale": true,
        "requests": [
          {
            "aggregator": "avg",
            "conditional_formats": [],
            "q": "sum:system.linux.service_respawn_count{$$micros_service_id,$$environment,micros_group:webserver}.as_count().rollup(sum)",
            "style": {
              "palette": "warm"
            },
            "type": "bars"
          }
        ],
        "status": "done",
        "viz": "timeseries"
      },
      "title": "WebServer Service Respawn Count"
    },
    {
      "definition": {
        "autoscale": true,
        "markers": [
          {
            "type": "error dashed",
            "val": "1",
            "value": "y = 1"
          }
        ],
        "requests": [
          {
            "aggregator": "avg",
            "conditional_formats": [],
            "q": "sum:perms.panics{$$environment}",
            "style": {
              "palette": "warm"
            },
            "type": "bars"
          }
        ],
        "status": "done",
        "viz": "timeseries"
      },
      "title": "Perms Panics in Environment"
    },
    {
      "definition": {
        "autoscale": true,
        "requests": [
          {
            "aggregator": "avg",
            "conditional_formats": [],
            "q": "sum:perms.cache.misses{$$micros_service_id,$$environment}.as_count().rollup(sum)",
            "style": {
              "palette": "dog_classic",
              "type": "solid",
              "width": "normal"
            },
            "type": "line"
          },
          {
            "q": "sum:perms.cache.hits{$$micros_service_id,$$environment}.as_count().rollup(sum)",
            "style": {
              "palette": "dog_classic",
              "type": "solid",
              "width": "normal"
            },
            "type": "line"
          }
        ],
        "status": "done",
        "viz": "timeseries"
      },
      "title": "perms.cache.misses, perms.cache.hits"
    }
  ],
  "read_only": false,
  "template_variables": [
    {
      "default": "micros_service_id:perms",
      "name": "micros_service_id",
      "prefix": "micros_service_id"
    },
    {
      "default": "environment:prod-west2",
      "name": "environment",
      "prefix": "environment"
    }
  ],
  "title": "Perms Timeboard"
}
