{
  "message": "Dashboard: https://p.datadoghq.com/sb/vWoG9B-0e8e0c11fb\n\nDeployment plan: https://deployment-bamboo.internal.atlassian.com/browse/TRUST-PERMSR\n\nHipchat room: @hipchat-Permissions_Service \n\nPagerduty service:  @pagerduty-perms-production-main",
  "name": "Perms: too many failed requests",
  "options": {
    "escalation_message": "",
    "include_tags": false,
    "locked": false,
    "new_host_delay": 300,
    "no_data_timeframe": null,
    "notify_audit": false,
    "notify_no_data": false,
    "renotify_interval": 0,
    "require_full_window": true,
    "silenced": {},
    "thresholds": {
      "critical": 250.0
    },
    "timeout_h": 0
  },
  "query": "sum(last_5m):sum:perms.failures{micros_service_id:perms,environment:prod-west2,micros_group:webserver}.as_count() > 250",
  "tags": [
    "service:perms"
  ],
  "type": "query alert"
}
